{"transactions":[{"id":842,"userId":11,"clientId":null,"phoneNumber":"622999888","amountFCFA":"2000.00","amountGNF":"30800.00","amountToPay":"2180.00","feeAmount":"180","feePercentage":"9","status":"pending","proof":null,"proofType":null,"proofImages":null,"proofCount":0,"externalProofUrl":null,"isArchived":false,"isProofShared":false,"isDeleted":true,"deletedAt":"2025-07-16T19:37:14.295Z","deletedBy":11,"exchangeRate":"15.4000","createdAt":"2025-07-16T19:37:09.829Z","userName":"DIALLO HAROUNA","clientName":"Client Occasionnel"},{"id":841,"userId":11,"clientId":null,"phoneNumber":"622112233","amountFCFA":"5000.00","amountGNF":"77000.00","amountToPay":"5450.00","feeAmount":"450","feePercentage":"9","status":"pending","proof":null,"proofType":null,"proofImages":null,"proofCount":0,"externalProofUrl":null,"isArchived":false,"isProofShared":false,"isDeleted":true,"deletedAt":"2025-07-16T19:36:17.865Z","deletedBy":11,"exchangeRate":"15.4000","createdAt":"2025-07-16T19:36:01.867Z","userName":"DIALLO HAROUNA","clientName":"Client Occasionnel"},{"id":840,"userId":11,"clientId":null,"phoneNumber":"611223344","amountFCFA":"1000.00","amountGNF":"15400.00","amountToPay":"1090.00","feeAmount":"90","feePercentage":"9","status":"pending","proof":null,"proofType":null,"proofImages":null,"proofCount":0,"externalProofUrl":null,"isArchived":false,"isProofShared":false,"isDeleted":true,"deletedAt":"2025-07-16T19:21:44.152Z","deletedBy":11,"exchangeRate":"15.4000","createdAt":"2025-07-16T19:21:26.436Z","userName":"DIALLO HAROUNA","clientName":"Client Occasionnel"},{"id":839,"userId":11,"clientId":23,"phoneNumber":"78564534","amountFCFA":"20000.00","amountGNF":"308000.00","amountToPay":"21800.00","feeAmount":"1800","feePercentage":"9","status":"pending","proof":null,"proofType":null,"proofImages":null,"proofCount":0,"externalProofUrl":null,"isArchived":false,"isProofShared":false,"isDeleted":true,"deletedAt":"2025-07-16T18:23:50.814Z","deletedBy":11,"exchangeRate":"15.4000","createdAt":"2025-07-16T18:23:10.967Z","userName":"DIALLO HAROUNA","clientName":"DEPOT BAMAKO"},{"id":838,"userId":11,"clientId":25,"phoneNumber":"623142345","amountFCFA":"50000.00","amountGNF":"770000.00","amountToPay":"54500.00","feeAmount":"4500","feePercentage":"9","status":"pending","proof":null,"proofType":null,"proofImages":null,"proofCount":0,"externalProofUrl":null,"isArchived":false,"isProofShared":false,"isDeleted":false,"deletedAt":null,"deletedBy":null,"exchangeRate":"15.4000","createdAt":"2025-07-16T18:22:14.384Z","userName":"DIALLO HAROUNA","clientName":"ALPHA\t"},{"id":837,"userId":11,"clientId":24,"phoneNumber":"624231515","amountFCFA":"20000.00","amountGNF":"308000.00","amountToPay":"21800.00","feeAmount":"1800","feePercentage":"9","status":"pending","proof":null,"proofType":null,"proofImages":null,"proofCount":0,"externalProofUrl":null,"isArchived":false,"isProofShared":false,"isDeleted":false,"deletedAt":null,"deletedBy":null,"exchangeRate":"15.4000","createdAt":"2025-07-16T18:18:59.144Z","userName":"DIALLO HAROUNA","clientName":"AO\t"},{"id":834,"userId":11,"clientId":29,"phoneNumber":"625432312","amountFCFA":"15000.00","amountGNF":"231000.00","amountToPay":"16350.00","feeAmount":"1350","feePercentage":"9","status":"validated","proof":"Vous avez envoye 650000F au 076435196 KONARE \nFrais 0F. Nouveau Solde 2232642.6F.\nTID:PP250713.1333.A08617.","proofType":"text","proofImages":null,"proofCount":0,"externalProofUrl":null,"isArchived":false,"isProofShared":false,"isDeleted":false,"deletedAt":null,"deletedBy":null,"exchangeRate":"15.4000","createdAt":"2025-07-16T01:07:29.139Z","userName":"DIALLO HAROUNA","clientName":"MR BALDE\t"},{"id":833,"userId":11,"clientId":29,"phoneNumber":"624534323","amountFCFA":"5000.00","amountGNF":"77000.00","amountToPay":"5450.00","feeAmount":"450","feePercentage":"9","status":"validated","proof":"Vous avez envoye 650000F au 076435196 KONARE ABBA GOUEM \nFrais 0F. Nouveau Solde 2232642.6F.\nTID:PP250713.1333.A08617.","proofType":"text","proofImages":null,"proofCount":0,"externalProofUrl":null,"isArchived":false,"isProofShared":false,"isDeleted":false,"deletedAt":null,"deletedBy":null,"exchangeRate":"15.4000","createdAt":"2025-07-16T01:06:54.701Z","userName":"DIALLO HAROUNA","clientName":"MR BALDE\t"},{"id":832,"userId":11,"clientId":29,"phoneNumber":"624231515","amountFCFA":"10000.00","amountGNF":"154000.00","amountToPay":"10900.00","feeAmount":"900","feePercentage":"9","status":"validated","proof":"Vous avez envoye 650000F au 076435196 KONARE ABBA GOUEM SERVICE.\nFrais 0F. Nouveau Solde 2232642.6F.\nTID:PP250713.1333.A08617.","proofType":"text","proofImages":null,"proofCount":0,"externalProofUrl":null,"isArchived":false,"isProofShared":false,"isDeleted":false,"deletedAt":null,"deletedBy":null,"exchangeRate":"15.4000","createdAt":"2025-07-16T01:06:22.215Z","userName":"DIALLO HAROUNA","clientName":"MR BALDE\t"},{"id":829,"userId":11,"clientId":29,"phoneNumber":"624231515","amountFCFA":"10000.00","amountGNF":"154000.00","amountToPay":"10900.00","feeAmount":"900","feePercentage":"9","status":"pending","proof":null,"proofType":null,"proofImages":null,"proofCount":0,"externalProofUrl":null,"isArchived":false,"isProofShared":false,"isDeleted":true,"deletedAt":"2025-07-16T01:03:58.302Z","deletedBy":3,"exchangeRate":"15.4000","createdAt":"2025-07-15T23:09:30.591Z","userName":"DIALLO HAROUNA","clientName":"MR BALDE\t"},{"id":828,"userId":11,"clientId":26,"phoneNumber":"624231515","amountFCFA":"5000.00","amountGNF":"77000.00","amountToPay":"5450.00","feeAmount":"450","feePercentage":"9","status":"pending","proof":null,"proofType":null,"proofImages":null,"proofCount":0,"externalProofUrl":null,"isArchived":false,"isProofShared":false,"isDeleted":true,"deletedAt":"2025-07-15T22:36:40.170Z","deletedBy":11,"exchangeRate":"15.4000","createdAt":"2025-07-15T22:32:27.625Z","userName":"DIALLO HAROUNA","clientName":"AZIZ\t"},{"id":827,"userId":11,"clientId":26,"phoneNumber":"624231515","amountFCFA":"5000.00","amountGNF":"77000.00","amountToPay":"5450.00","feeAmount":"450","feePercentage":"9","status":"pending","proof":null,"proofType":null,"proofImages":null,"proofCount":0,"externalProofUrl":null,"isArchived":false,"isProofShared":false,"isDeleted":true,"deletedAt":"2025-07-15T22:28:40.032Z","deletedBy":11,"exchangeRate":"15.4000","createdAt":"2025-07-15T22:28:10.789Z","userName":"DIALLO HAROUNA","clientName":"AZIZ\t"},{"id":826,"userId":11,"clientId":23,"phoneNumber":"77889923","amountFCFA":"10000.00","amountGNF":"154000.00","amountToPay":"10900.00","feeAmount":"900","feePercentage":"9","status":"pending","proof":null,"proofType":null,"proofImages":null,"proofCount":0,"externalProofUrl":null,"isArchived":false,"isProofShared":false,"isDeleted":true,"deletedAt":"2025-07-16T00:42:58.955Z","deletedBy":3,"exchangeRate":"15.4000","createdAt":"2025-07-15T22:02:34.764Z","userName":"DIALLO HAROUNA","clientName":"DEPOT BAMAKO"},{"id":825,"userId":11,"clientId":24,"phoneNumber":"624231515","amountFCFA":"3000.00","amountGNF":"46200.00","amountToPay":"3270.00","feeAmount":"270","feePercentage":"9","status":"pending","proof":null,"proofType":null,"proofImages":null,"proofCount":0,"externalProofUrl":null,"isArchived":false,"isProofShared":false,"isDeleted":true,"deletedAt":"2025-07-15T23:19:54.112Z","deletedBy":3,"exchangeRate":"15.4000","createdAt":"2025-07-15T22:01:54.732Z","userName":"DIALLO HAROUNA","clientName":"AO\t"},{"id":824,"userId":11,"clientId":24,"phoneNumber":"624231515","amountFCFA":"10000.00","amountGNF":"154000.00","amountToPay":"10900.00","feeAmount":"900","feePercentage":"9","status":"pending","proof":null,"proofType":null,"proofImages":null,"proofCount":0,"externalProofUrl":null,"isArchived":false,"isProofShared":false,"isDeleted":true,"deletedAt":"2025-07-15T23:19:42.321Z","deletedBy":3,"exchangeRate":"15.4000","createdAt":"2025-07-15T21:58:39.327Z","userName":"DIALLO HAROUNA","clientName":"AO\t"},{"id":823,"userId":11,"clientId":24,"phoneNumber":"624231515","amountFCFA":"10000.00","amountGNF":"154000.00","amountToPay":"10900.00","feeAmount":"900","feePercentage":"9","status":"pending","proof":null,"proofType":null,"proofImages":null,"proofCount":0,"externalProofUrl":null,"isArchived":false,"isProofShared":false,"isDeleted":true,"deletedAt":"2025-07-15T23:19:26.077Z","deletedBy":3,"exchangeRate":"15.4000","createdAt":"2025-07-15T21:58:26.436Z","userName":"DIALLO HAROUNA","clientName":"AO\t"},{"id":822,"userId":11,"clientId":24,"phoneNumber":"624231515","amountFCFA":"5000.00","amountGNF":"77000.00","amountToPay":"5450.00","feeAmount":"450","feePercentage":"9","status":"pending","proof":null,"proofType":null,"proofImages":null,"proofCount":0,"externalProofUrl":null,"isArchived":false,"isProofShared":false,"isDeleted":true,"deletedAt":"2025-07-15T23:19:12.857Z","deletedBy":3,"exchangeRate":"15.4000","createdAt":"2025-07-15T21:54:40.768Z","userName":"DIALLO HAROUNA","clientName":"AO\t"},{"id":821,"userId":11,"clientId":23,"phoneNumber":"77889923","amountFCFA":"5000.00","amountGNF":"77000.00","amountToPay":"5450.00","feeAmount":"450","feePercentage":"9","status":"pending","proof":null,"proofType":null,"proofImages":null,"proofCount":0,"externalProofUrl":null,"isArchived":false,"isProofShared":false,"isDeleted":true,"deletedAt":"2025-07-15T23:18:59.036Z","deletedBy":3,"exchangeRate":"15.4000","createdAt":"2025-07-15T21:50:12.926Z","userName":"DIALLO HAROUNA","clientName":"DEPOT BAMAKO"},{"id":820,"userId":11,"clientId":24,"phoneNumber":"624231515","amountFCFA":"5000.00","amountGNF":"77000.00","amountToPay":"5450.00","feeAmount":"450","feePercentage":"9","status":"pending","proof":null,"proofType":null,"proofImages":null,"proofCount":0,"externalProofUrl":null,"isArchived":false,"isProofShared":false,"isDeleted":true,"deletedAt":"2025-07-15T23:18:45.414Z","deletedBy":3,"exchangeRate":"15.4000","createdAt":"2025-07-15T21:49:49.997Z","userName":"DIALLO HAROUNA","clientName":"AO\t"},{"id":819,"userId":11,"clientId":24,"phoneNumber":"624231515","amountFCFA":"10000.00","amountGNF":"154000.00","amountToPay":"10900.00","feeAmount":"900","feePercentage":"9","status":"pending","proof":null,"proofType":null,"proofImages":null,"proofCount":0,"externalProofUrl":null,"isArchived":false,"isProofShared":false,"isDeleted":true,"deletedAt":"2025-07-15T23:18:31.840Z","deletedBy":3,"exchangeRate":"15.4000","createdAt":"2025-07-15T21:45:06.928Z","userName":"DIALLO HAROUNA","clientName":"AO\t"},{"id":818,"userId":11,"clientId":24,"phoneNumber":"624231515","amountFCFA":"10000.00","amountGNF":"154000.00","amountToPay":"10900.00","feeAmount":"900","feePercentage":"9","status":"pending","proof":null,"proofType":null,"proofImages":null,"proofCount":0,"externalProofUrl":null,"isArchived":false,"isProofShared":false,"isDeleted":true,"deletedAt":"2025-07-15T23:18:17.474Z","deletedBy":3,"exchangeRate":"15.4000","createdAt":"2025-07-15T21:43:34.021Z","userName":"DIALLO HAROUNA","clientName":"AO\t"},{"id":817,"userId":11,"clientId":23,"phoneNumber":"77889923","amountFCFA":"10000.00","amountGNF":"154000.00","amountToPay":"10900.00","feeAmount":"900","feePercentage":"9","status":"pending","proof":null,"proofType":null,"proofImages":null,"proofCount":0,"externalProofUrl":null,"isArchived":false,"isProofShared":false,"isDeleted":true,"deletedAt":"2025-07-15T23:18:01.270Z","deletedBy":3,"exchangeRate":"15.4000","createdAt":"2025-07-15T21:42:54.259Z","userName":"DIALLO HAROUNA","clientName":"DEPOT BAMAKO"},{"id":816,"userId":11,"clientId":23,"phoneNumber":"77889923","amountFCFA":"10000.00","amountGNF":"154000.00","amountToPay":"10900.00","feeAmount":"900","feePercentage":"9","status":"pending","proof":null,"proofType":null,"proofImages":null,"proofCount":0,"externalProofUrl":null,"isArchived":false,"isProofShared":false,"isDeleted":true,"deletedAt":"2025-07-15T22:55:15.038Z","deletedBy":11,"exchangeRate":"15.4000","createdAt":"2025-07-15T20:47:44.773Z","userName":"DIALLO HAROUNA","clientName":"DEPOT BAMAKO"},{"id":815,"userId":11,"clientId":24,"phoneNumber":"624231515","amountFCFA":"5000.00","amountGNF":"77000.00","amountToPay":"5450.00","feeAmount":"450","feePercentage":"9","status":"pending","proof":null,"proofType":null,"proofImages":null,"proofCount":0,"externalProofUrl":null,"isArchived":false,"isProofShared":false,"isDeleted":true,"deletedAt":"2025-07-15T22:51:41.222Z","deletedBy":11,"exchangeRate":"15.4000","createdAt":"2025-07-15T20:42:48.056Z","userName":"DIALLO HAROUNA","clientName":"AO\t"},{"id":813,"userId":11,"clientId":30,"phoneNumber":"624231515","amountFCFA":"10000.00","amountGNF":"154000.00","amountToPay":"10900.00","feeAmount":"900","feePercentage":"9","status":"validated","proof":"DEPOT EFFECTUER","proofType":"text","proofImages":null,"proofCount":0,"externalProofUrl":null,"isArchived":false,"isProofShared":false,"isDeleted":false,"deletedAt":null,"deletedBy":null,"exchangeRate":"15.4000","createdAt":"2025-07-15T18:32:40.136Z","userName":"DIALLO HAROUNA","clientName":"GHADIROU\t"},{"id":812,"userId":11,"clientId":24,"phoneNumber":"624231515","amountFCFA":"12000.00","amountGNF":"184800.00","amountToPay":"13080.00","feeAmount":"1080","feePercentage":"9","status":"validated","proof":"DEPOT EFFECTUER","proofType":"text","proofImages":null,"proofCount":0,"externalProofUrl":null,"isArchived":false,"isProofShared":false,"isDeleted":false,"deletedAt":null,"deletedBy":null,"exchangeRate":"15.4000","createdAt":"2025-07-15T18:31:03.197Z","userName":"DIALLO HAROUNA","clientName":"AO\t"},{"id":811,"userId":11,"clientId":23,"phoneNumber":"624231515","amountFCFA":"10000.00","amountGNF":"154000.00","amountToPay":"10900.00","feeAmount":"900","feePercentage":"9","status":"pending","proof":null,"proofType":null,"proofImages":null,"proofCount":0,"externalProofUrl":null,"isArchived":false,"isProofShared":false,"isDeleted":true,"deletedAt":"2025-07-15T22:44:38.584Z","deletedBy":11,"exchangeRate":"15.4000","createdAt":"2025-07-15T18:28:00.598Z","userName":"DIALLO HAROUNA","clientName":"DEPOT BAMAKO"},{"id":809,"userId":11,"clientId":23,"phoneNumber":"624231515","amountFCFA":"5000.00","amountGNF":"77000.00","amountToPay":"5450.00","feeAmount":"450","feePercentage":"9","status":"pending","proof":null,"proofType":null,"proofImages":null,"proofCount":0,"externalProofUrl":null,"isArchived":false,"isProofShared":false,"isDeleted":true,"deletedAt":"2025-07-15T22:41:43.848Z","deletedBy":11,"exchangeRate":"15.4000","createdAt":"2025-07-15T18:15:34.692Z","userName":"DIALLO HAROUNA","clientName":"DEPOT BAMAKO"},{"id":808,"userId":11,"clientId":25,"phoneNumber":"624231515","amountFCFA":"5000.00","amountGNF":"77000.00","amountToPay":"5450.00","feeAmount":"450","feePercentage":"9","status":"pending","proof":null,"proofType":null,"proofImages":null,"proofCount":0,"externalProofUrl":null,"isArchived":false,"isProofShared":false,"isDeleted":true,"deletedAt":"2025-07-15T22:26:25.017Z","deletedBy":11,"exchangeRate":"15.4000","createdAt":"2025-07-15T18:09:36.048Z","userName":"DIALLO HAROUNA","clientName":"ALPHA\t"},{"id":796,"userId":11,"clientId":23,"phoneNumber":"00000000","amountFCFA":"91500.00","amountGNF":"1409100.00","amountToPay":"100650.00","feeAmount":"9150","feePercentage":"10","status":"validated","proof":"depot bamako du 01=61.000.                                     et depot bamako du 02=30.500","proofType":"text","proofImages":null,"proofCount":0,"externalProofUrl":null,"isArchived":false,"isProofShared":false,"isDeleted":false,"deletedAt":null,"deletedBy":null,"exchangeRate":"15.4000","createdAt":"2025-07-02T18:11:32.697Z","userName":"DIALLO HAROUNA","clientName":"DEPOT BAMAKO"},{"id":795,"userId":11,"clientId":31,"phoneNumber":"611517596","amountFCFA":"50000.00","amountGNF":"770000.00","amountToPay":"55000.00","feeAmount":"5000.00","feePercentage":"10","status":"validated","proof":"Depot vers 611517596 reussi. Montant 770000.00GNF, Frais 0.00GNF, Commission 0.00GNF, ID Transaction: CI250702.1635.N05137,","proofType":"text","proofImages":null,"proofCount":0,"externalProofUrl":null,"isArchived":false,"isProofShared":false,"isDeleted":false,"deletedAt":null,"deletedBy":null,"exchangeRate":"15.4000","createdAt":"2025-07-02T16:23:36.191Z","userName":"DIALLO HAROUNA","clientName":"EMBALLO\t"},{"id":793,"userId":11,"clientId":32,"phoneNumber":"624 54 43 29","amountFCFA":"40000.00","amountGNF":"616000.00","amountToPay":"44000.00","feeAmount":"4000.00","feePercentage":"10","status":"validated","proof":"Depot vers 624544329 reussi. Montant 616000.00GNF, Frais 0.00GNF, Commission 0.00GNF, ID Transaction: CI250702.1554.M95663,","proofType":"text","proofImages":null,"proofCount":0,"externalProofUrl":null,"isArchived":false,"isProofShared":false,"isDeleted":false,"deletedAt":null,"deletedBy":null,"exchangeRate":"15.4000","createdAt":"2025-07-02T15:51:12.136Z","userName":"DIALLO HAROUNA","clientName":"ALPHA OUMAR\t"},{"id":789,"userId":11,"clientId":36,"phoneNumber":"621. 16. 66. 78","amountFCFA":"90000.00","amountGNF":"1386000.00","amountToPay":"99000.00","feeAmount":"9000.00","feePercentage":"10","status":"validated","proof":"Depot vers 621166678 reussi. Montant 1386000.00GNF, Frais 0.00GNF, Commission 0.00GNF, ID Transaction: CI250702.1542.N90526,","proofType":"text","proofImages":null,"proofCount":0,"externalProofUrl":null,"isArchived":false,"isProofShared":false,"isDeleted":false,"deletedAt":null,"deletedBy":null,"exchangeRate":"15.4000","createdAt":"2025-07-02T15:00:29.768Z","userName":"DIALLO HAROUNA","clientName":"TIDJANE\t"},{"id":788,"userId":11,"clientId":32,"phoneNumber":" 623 21 05 53","amountFCFA":"15000.00","amountGNF":"231000.00","amountToPay":"16500.00","feeAmount":"1500.00","feePercentage":"10","status":"validated","proof":"Depot vers 623210553 reussi. Montant 231000.00GNF, Frais 0.00GNF, Commission 0.00GNF, ID Transaction: CI250702.1517.M84482,","proofType":"text","proofImages":null,"proofCount":0,"externalProofUrl":null,"isArchived":false,"isProofShared":false,"isDeleted":false,"deletedAt":null,"deletedBy":null,"exchangeRate":"15.4000","createdAt":"2025-07-02T14:46:36.175Z","userName":"DIALLO HAROUNA","clientName":"ALPHA OUMAR\t"},{"id":786,"userId":11,"clientId":47,"phoneNumber":"611 38 35 60","amountFCFA":"5000.00","amountGNF":"77000.00","amountToPay":"5500.00","feeAmount":"500.00","feePercentage":"10","status":"validated","proof":"Depot vers 611383560 reussi. Montant 77000.00GNF, Frais 0.00GNF, Commission 0.00GNF, ID Transaction: CI250702.1515.K82543,","proofType":"text","proofImages":null,"proofCount":0,"externalProofUrl":null,"isArchived":false,"isProofShared":false,"isDeleted":false,"deletedAt":null,"deletedBy":null,"exchangeRate":"15.4000","createdAt":"2025-07-02T14:33:34.127Z","userName":"DIALLO HAROUNA","clientName":"OGR\t"},{"id":785,"userId":11,"clientId":40,"phoneNumber":"625287035","amountFCFA":"50000.00","amountGNF":"770000.00","amountToPay":"55000.00","feeAmount":"5000.00","feePercentage":"10","status":"validated","proof":"Depot vers 625287035 reussi. Montant 770000.00GNF, Frais 0.00GNF, Commission 0.00GNF, ID Transaction: CI250702.1450.N74980,","proofType":"text","proofImages":null,"proofCount":0,"externalProofUrl":null,"isArchived":false,"isProofShared":false,"isDeleted":false,"deletedAt":null,"deletedBy":null,"exchangeRate":"15.4000","createdAt":"2025-07-02T14:32:48.721Z","userName":"DIALLO HAROUNA","clientName":"KTM\t"},{"id":784,"userId":11,"clientId":24,"phoneNumber":"622 01 44 45","amountFCFA":"25000.00","amountGNF":"385000.00","amountToPay":"27500.00","feeAmount":"2500.00","feePercentage":"10","status":"validated","proof":"Depot vers 622014445 reussi. Montant 385000.00GNF, Frais 0.00GNF, Commission 0.00GNF, ID Transaction: CI250702.1447.K74425,","proofType":"text","proofImages":null,"proofCount":0,"externalProofUrl":null,"isArchived":false,"isProofShared":false,"isDeleted":false,"deletedAt":null,"deletedBy":null,"exchangeRate":"15.4000","createdAt":"2025-07-02T14:27:09.369Z","userName":"DIALLO HAROUNA","clientName":"AO\t"},{"id":783,"userId":11,"clientId":52,"phoneNumber":"611 02 06 86","amountFCFA":"110000.00","amountGNF":"1694000.00","amountToPay":"121000.00","feeAmount":"11000.00","feePercentage":"10","status":"validated","proof":"Depot vers 611020686 reussi. Montant 1694000.00GNF, Frais 0.00GNF, Commission 0.00GNF, ID Transaction: CI250702.1324.L48313,","proofType":"text","proofImages":null,"proofCount":0,"externalProofUrl":null,"isArchived":false,"isProofShared":false,"isDeleted":false,"deletedAt":null,"deletedBy":null,"exchangeRate":"15.4000","createdAt":"2025-07-02T13:19:18.770Z","userName":"DIALLO HAROUNA","clientName":"THMDOU\t"},{"id":782,"userId":11,"clientId":37,"phoneNumber":"621376140","amountFCFA":"65000.00","amountGNF":"1001000.00","amountToPay":"71500.00","feeAmount":"6500.00","feePercentage":"10","status":"validated","proof":"Depot vers 621376140 reussi. Montant 1001000.00GNF, Frais 0.00GNF, Commission 0.00GNF, ID Transaction: CI250702.1309.L43397,","proofType":"text","proofImages":null,"proofCount":0,"externalProofUrl":null,"isArchived":false,"isProofShared":false,"isDeleted":false,"deletedAt":null,"deletedBy":null,"exchangeRate":"15.4000","createdAt":"2025-07-02T13:01:04.598Z","userName":"DIALLO HAROUNA","clientName":"HASSAN\t"},{"id":781,"userId":11,"clientId":48,"phoneNumber":"626051147","amountFCFA":"15000.00","amountGNF":"231000.00","amountToPay":"16500.00","feeAmount":"1500.00","feePercentage":"10","status":"validated","proof":"Depot vers 626051147 reussi. Montant 231000.00GNF, Frais 0.00GNF, Commission 0.00GNF, ID Transaction: CI250702.1308.L42887,","proofType":"text","proofImages":null,"proofCount":0,"externalProofUrl":null,"isArchived":false,"isProofShared":false,"isDeleted":false,"deletedAt":null,"deletedBy":null,"exchangeRate":"15.4000","createdAt":"2025-07-02T13:00:20.159Z","userName":"DIALLO HAROUNA","clientName":"OUMAR\t"},{"id":780,"userId":11,"clientId":48,"phoneNumber":"625120286","amountFCFA":"15000.00","amountGNF":"231000.00","amountToPay":"16500.00","feeAmount":"1500.00","feePercentage":"10","status":"validated","proof":"Depot vers 625120286 reussi. Montant 213000.00GNF, Frais 0.00GNF, Commission 0.00GNF, ID Transaction: CI250702.1216.M27503,","proofType":"text","proofImages":null,"proofCount":0,"externalProofUrl":null,"isArchived":false,"isProofShared":false,"isDeleted":false,"deletedAt":null,"deletedBy":null,"exchangeRate":"15.4000","createdAt":"2025-07-02T12:14:39.868Z","userName":"DIALLO HAROUNA","clientName":"OUMAR\t"},{"id":776,"userId":11,"clientId":27,"phoneNumber":"621 43 51 75","amountFCFA":"15000.00","amountGNF":"231000.00","amountToPay":"16500.00","feeAmount":"1500.00","feePercentage":"10","status":"validated","proof":"Depot vers 621435175 reussi. Montant 231000.00GNF, Frais 0.00GNF, Commission 0.00GNF, ID Transaction: CI250702.1159.L20713,","proofType":"text","proofImages":null,"proofCount":0,"externalProofUrl":null,"isArchived":false,"isProofShared":false,"isDeleted":false,"deletedAt":null,"deletedBy":null,"exchangeRate":"15.4000","createdAt":"2025-07-02T11:51:40.952Z","userName":"DIALLO HAROUNA","clientName":"BCRPG\t"},{"id":775,"userId":11,"clientId":52,"phoneNumber":"620477647","amountFCFA":"10000.00","amountGNF":"154000.00","amountToPay":"11000.00","feeAmount":"1000.00","feePercentage":"10","status":"validated","proof":"Depot vers 620477647 reussi. Montant 154000.00GNF, Frais 0.00GNF, Commission 0.00GNF, ID Transaction: CI250702.1158.N20009,","proofType":"text","proofImages":null,"proofCount":0,"externalProofUrl":null,"isArchived":false,"isProofShared":false,"isDeleted":false,"deletedAt":null,"deletedBy":null,"exchangeRate":"15.4000","createdAt":"2025-07-02T11:50:51.951Z","userName":"DIALLO HAROUNA","clientName":"THMDOU\t"},{"id":774,"userId":11,"clientId":32,"phoneNumber":"612 87 49 97","amountFCFA":"100000.00","amountGNF":"1540000.00","amountToPay":"110000.00","feeAmount":"10000.00","feePercentage":"10","status":"validated","proof":"Depot vers 612874997 reussi. Montant 1540000.00GNF, Frais 0.00GNF, Commission 0.00GNF, ID Transaction: CI250702.1156.K19864,","proofType":"text","proofImages":null,"proofCount":0,"externalProofUrl":null,"isArchived":false,"isProofShared":false,"isDeleted":false,"deletedAt":null,"deletedBy":null,"exchangeRate":"15.4000","createdAt":"2025-07-02T11:50:06.838Z","userName":"DIALLO HAROUNA","clientName":"ALPHA OUMAR\t"},{"id":773,"userId":11,"clientId":51,"phoneNumber":"613287155","amountFCFA":"15000.00","amountGNF":"231000.00","amountToPay":"16500.00","feeAmount":"1500.00","feePercentage":"10","status":"validated","proof":"Depot vers 613287155 reussi. Montant 231000.00GNF, Frais 0.00GNF, Commission 0.00GNF, ID Transaction: CI250702.1131.L11757,","proofType":"text","proofImages":null,"proofCount":0,"externalProofUrl":null,"isArchived":false,"isProofShared":false,"isDeleted":false,"deletedAt":null,"deletedBy":null,"exchangeRate":"15.4000","createdAt":"2025-07-02T11:29:44.740Z","userName":"DIALLO HAROUNA","clientName":"TCR\t"},{"id":772,"userId":11,"clientId":40,"phoneNumber":" 612611235","amountFCFA":"30000.00","amountGNF":"462000.00","amountToPay":"33000.00","feeAmount":"3000.00","feePercentage":"10","status":"validated","proof":"Depot vers 612611235 reussi. Montant 462000.00GNF, Frais 0.00GNF, Commission 0.00GNF, ID Transaction: CI250702.1130.M12621,","proofType":"text","proofImages":null,"proofCount":0,"externalProofUrl":null,"isArchived":false,"isProofShared":false,"isDeleted":false,"deletedAt":null,"deletedBy":null,"exchangeRate":"15.4000","createdAt":"2025-07-02T11:23:04.798Z","userName":"DIALLO HAROUNA","clientName":"KTM\t"},{"id":771,"userId":11,"clientId":35,"phoneNumber":"612 32 79 54","amountFCFA":"250000.00","amountGNF":"3850000.00","amountToPay":"275000.00","feeAmount":"25000.00","feePercentage":"10","status":"validated","proof":"Depot vers 612327954 reussi. Montant 3850000.00GNF, Frais 0.00GNF, Commission 0.00GNF, ID Transaction: CI250702.1129.L11027,","proofType":"text","proofImages":null,"proofCount":0,"externalProofUrl":null,"isArchived":false,"isProofShared":false,"isDeleted":false,"deletedAt":null,"deletedBy":null,"exchangeRate":"15.4000","createdAt":"2025-07-02T11:21:41.403Z","userName":"DIALLO HAROUNA","clientName":"HADY\t"},{"id":770,"userId":11,"clientId":45,"phoneNumber":"628 86 35 68","amountFCFA":"65000.00","amountGNF":"1001000.00","amountToPay":"71500.00","feeAmount":"6500.00","feePercentage":"10","status":"validated","proof":"Depot vers 628863568 reussi. Montant 1001000.00GNF, Frais 0.00GNF, Commission 0.00GNF, ID Transaction: CI250702.1126.M11230, Nouveau Solde 17379139.76GNF.","proofType":"text","proofImages":null,"proofCount":0,"externalProofUrl":null,"isArchived":false,"isProofShared":false,"isDeleted":false,"deletedAt":null,"deletedBy":null,"exchangeRate":"15.4000","createdAt":"2025-07-02T11:20:29.254Z","userName":"DIALLO HAROUNA","clientName":"MINDOUBE\t"},{"id":769,"userId":11,"clientId":32,"phoneNumber":"622975335 ","amountFCFA":"100000.00","amountGNF":"1540000.00","amountToPay":"110000.00","feeAmount":"10000.00","feePercentage":"10","status":"validated","proof":"Depot vers 622975335 reussi. Montant 1540000.00GNF, Frais 0.00GNF, Commission 0.00GNF, ID Transaction: CI250702.1122.N08119,","proofType":"text","proofImages":null,"proofCount":0,"externalProofUrl":null,"isArchived":false,"isProofShared":false,"isDeleted":false,"deletedAt":null,"deletedBy":null,"exchangeRate":"15.4000","createdAt":"2025-07-02T11:19:33.519Z","userName":"DIALLO HAROUNA","clientName":"ALPHA OUMAR\t"},{"id":766,"userId":11,"clientId":53,"phoneNumber":"629259249","amountFCFA":"5000.00","amountGNF":"77000.00","amountToPay":"5500.00","feeAmount":"500.00","feePercentage":"10","status":"validated","proof":"Depot vers 629259249 reussi. Montant 77000.00GNF, Frais 0.00GNF, Commission 0.00GNF, ID Transaction: CI250702.1012.M86174,","proofType":"text","proofImages":null,"proofCount":0,"externalProofUrl":null,"isArchived":false,"isProofShared":false,"isDeleted":false,"deletedAt":null,"deletedBy":null,"exchangeRate":"15.4000","createdAt":"2025-07-02T10:07:06.350Z","userName":"DIALLO HAROUNA","clientName":"ZIZI\t"}],"pagination":{"page":1,"limit":50,"total":382,"totalPages":8,"hasNext":true,"hasPrev":false}}